[gd_scene load_steps=3 format=2]

[ext_resource path="res://assets/floor.png" type="Texture" id=1]

[sub_resource type="RectangleShape2D" id=1]
extents = Vector2( 2739.84, 182.351 )

[node name="Floor" type="StaticBody2D"]

[node name="floor" type="Sprite" parent="."]
position = Vector2( 64, 8 )
texture = ExtResource( 1 )

[node name="floor2" type="Sprite" parent="."]
position = Vector2( 1088, 8 )
texture = ExtResource( 1 )

[node name="floor3" type="Sprite" parent="."]
position = Vector2( 2112, 8 )
texture = ExtResource( 1 )

[node name="floor4" type="Sprite" parent="."]
position = Vector2( 3136, 8 )
texture = ExtResource( 1 )

[node name="CollisionShape2D" type="CollisionShape2D" parent="."]
position = Vector2( 1607.66, 131.032 )
shape = SubResource( 1 )
